…
After installing the package, you still need to load it before using its functionality:

```julia
using CSV
```
Besides `CSV.jl`, we also need `DataFrames.jl`. You can install it the same way — give it a try!

After installing both packages, we can read the data file like this:

```julia
df = CSV.read("inflammation-01.csv", DataFrame)
```
```output
59×40 DataFrame
 Row │ 0      0_1    1      3      1_1    2      4      7      8      3_1    3 ⋯
     │ Int64  Int64  Int64  Int64  Int64  Int64  Int64  Int64  Int64  Int64  I ⋯
─────┼──────────────────────────────────────────────────────────────────────────
   1 │     0      1      2      1      2      1      3      2      2      6    ⋯
   2 │     0      1      1      3      3      2      6      2      5      9
   3 │     0      0      2      0      4      2      2      1      6      7
   4 │     0      1      1      3      3      1      3      5      2      4
   5 │     0      0      1      2      2      4      2      1      6      4    ⋯
   6 │     0      0      2      2      4      2      2      5      5      8
   7 │     0      0      1      2      3      1      2      3      5      3
   8 │     0      0      0      3      1      5      6      5      5      8
  ⋮  │   ⋮      ⋮      ⋮      ⋮      ⋮      ⋮      ⋮      ⋮      ⋮      ⋮      ⋱
  53 │     0      0      2      1      1      4      4      7      2      9    ⋯
  54 │     0      1      2      1      1      4      5      4      4      5
  55 │     0      0      1      3      2      3      6      4      5      7
  56 │     0      1      1      2      2      5      1      7      4      2
  57 │     0      1      1      1      4      1      6      4      6      3    ⋯
  58 │     0      0      0      1      4      5      6      3      8      7
  59 │     0      0      1      0      3      2      5      4      8      2
                                                  30 columns and 44 rows omitted
```
…
